<svg width="682pt" height="258pt" viewBox="0.00 0.00 682.00 257.60" xmlns="http://www.w3.org/2000/svg" xmlns:xlink="http://www.w3.org/1999/xlink">
<g id="graph0" class="graph" transform="scale(1 1) rotate(0) translate(4 253.6)">
<title>graphname</title>
<polygon fill="#ffffff" stroke="transparent" points="-4,4 -4,-253.6 678,-253.6 678,4 -4,4"></polygon>
<g id="clust1" class="cluster">
<title>cluster_external</title>
<polygon fill="none" stroke="#000000" points="8,-164.8 8,-241.6 666,-241.6 666,-164.8 8,-164.8"></polygon>
<text text-anchor="middle" x="337" y="-225" font-family="Times,serif" font-size="14.00" fill="#000000">External archivist clients</text>
</g>
<g id="clust2" class="cluster">
<title>cluster_archivist</title>
<polygon fill="none" stroke="#000000" points="85,-8 85,-156.8 622,-156.8 622,-8 85,-8"></polygon>
<text text-anchor="middle" x="353.5" y="-140.2" font-family="Times,serif" font-size="14.00" fill="#000000">Archivist</text>
</g>
<!-- firefox -->
<g id="node1" class="node">
<title>firefox</title>
<ellipse fill="none" stroke="#000000" cx="590" cy="-190.8" rx="68.3228" ry="18"></ellipse>
<text text-anchor="middle" x="590" y="-186.6" font-family="Times,serif" font-size="14.00" fill="#000000">Firefox Addon</text>
</g>
<!-- overseer -->
<g id="node5" class="node">
<title>overseer</title>
<ellipse fill="none" stroke="#000000" cx="311" cy="-106" rx="45.7636" ry="18"></ellipse>
<text text-anchor="middle" x="311" y="-101.8" font-family="Times,serif" font-size="14.00" fill="#000000">Overseer</text>
</g>
<!-- firefox&#45;&gt;overseer -->
<g id="edge1" class="edge">
<title>firefox-&gt;overseer</title>
<path fill="none" stroke="#000000" d="M548.5454,-176.4434C537.0644,-172.5652 524.5762,-168.4375 513,-164.8 460.3676,-148.2618 399.5222,-130.7696 358.4782,-119.2065"></path>
<polygon fill="#000000" stroke="#000000" points="359.3193,-115.8073 348.7453,-116.4711 357.4253,-122.5463 359.3193,-115.8073"></polygon>
</g>
<!-- slack -->
<g id="node2" class="node">
<title>slack</title>
<ellipse fill="none" stroke="#000000" cx="435" cy="-190.8" rx="69.4166" ry="18"></ellipse>
<text text-anchor="middle" x="435" y="-186.6" font-family="Times,serif" font-size="14.00" fill="#000000">Slack Interface</text>
</g>
<!-- slack&#45;&gt;overseer -->
<g id="edge2" class="edge">
<title>slack-&gt;overseer</title>
<path fill="none" stroke="#000000" d="M410.2048,-173.8433C390.6997,-160.5043 363.3989,-141.8341 342.3734,-127.4554"></path>
<polygon fill="#000000" stroke="#000000" points="344.3072,-124.5376 334.077,-121.7817 340.3557,-130.3157 344.3072,-124.5376"></polygon>
</g>
<!-- rotonde -->
<g id="node3" class="node">
<title>rotonde</title>
<ellipse fill="none" stroke="#000000" cx="267" cy="-190.8" rx="80.4573" ry="18"></ellipse>
<text text-anchor="middle" x="267" y="-186.6" font-family="Times,serif" font-size="14.00" fill="#000000">Rotonde Interface</text>
</g>
<!-- rotonde&#45;&gt;overseer -->
<g id="edge3" class="edge">
<title>rotonde-&gt;overseer</title>
<path fill="none" stroke="#000000" d="M276.3313,-172.8161C282.3804,-161.1577 290.3681,-145.7634 297.1515,-132.6899"></path>
<polygon fill="#000000" stroke="#000000" points="300.3341,-134.1555 301.8331,-123.6672 294.1207,-130.9315 300.3341,-134.1555"></polygon>
</g>
<!-- twitter -->
<g id="node4" class="node">
<title>twitter</title>
<ellipse fill="none" stroke="#000000" cx="92" cy="-190.8" rx="76.3553" ry="18"></ellipse>
<text text-anchor="middle" x="92" y="-186.6" font-family="Times,serif" font-size="14.00" fill="#000000">Twitter Interface</text>
</g>
<!-- twitter&#45;&gt;overseer -->
<g id="edge4" class="edge">
<title>twitter-&gt;overseer</title>
<path fill="none" stroke="#000000" d="M131.9133,-175.345C170.5831,-160.3715 229.0228,-137.7428 268.5347,-122.4432"></path>
<polygon fill="#000000" stroke="#000000" points="270.0872,-125.5953 278.1487,-118.7205 267.5596,-119.0676 270.0872,-125.5953"></polygon>
</g>
<!-- slackdb -->
<g id="node6" class="node">
<title>slackdb</title>
<polygon fill="none" stroke="#000000" points="201.3859,-52 92.6141,-52 92.6141,-16 201.3859,-16 201.3859,-52"></polygon>
<text text-anchor="middle" x="147" y="-29.8" font-family="Times,serif" font-size="14.00" fill="#000000">Database (slack)</text>
</g>
<!-- overseer&#45;&gt;slackdb -->
<g id="edge6" class="edge">
<title>overseer-&gt;slackdb</title>
<path fill="none" stroke="#000000" d="M280.1529,-92.4574C256.9127,-82.2543 224.5453,-68.0443 197.5423,-56.1893"></path>
<polygon fill="#000000" stroke="#000000" points="198.802,-52.9199 188.2386,-52.1047 195.988,-59.3294 198.802,-52.9199"></polygon>
</g>
<!-- firefoxdb -->
<g id="node7" class="node">
<title>firefoxdb</title>
<polygon fill="none" stroke="#000000" points="338.2086,-52 219.7914,-52 219.7914,-16 338.2086,-16 338.2086,-52"></polygon>
<text text-anchor="middle" x="279" y="-29.8" font-family="Times,serif" font-size="14.00" fill="#000000">Database (firefox)</text>
</g>
<!-- overseer&#45;&gt;firefoxdb -->
<g id="edge5" class="edge">
<title>overseer-&gt;firefoxdb</title>
<path fill="none" stroke="#000000" d="M303.0899,-88.2022C299.5016,-80.1287 295.1767,-70.3976 291.1876,-61.422"></path>
<polygon fill="#000000" stroke="#000000" points="294.3012,-59.8097 287.0414,-52.0931 287.9045,-62.6527 294.3012,-59.8097"></polygon>
</g>
<!-- rotondedb -->
<g id="node8" class="node">
<title>rotondedb</title>
<polygon fill="none" stroke="#000000" points="479.3873,-52 356.6127,-52 356.6127,-16 479.3873,-16 479.3873,-52"></polygon>
<text text-anchor="middle" x="418" y="-29.8" font-family="Times,serif" font-size="14.00" fill="#000000">Database (rotonde)</text>
</g>
<!-- overseer&#45;&gt;rotondedb -->
<g id="edge7" class="edge">
<title>overseer-&gt;rotondedb</title>
<path fill="none" stroke="#000000" d="M334.2174,-90.3771C348.3234,-80.8852 366.6173,-68.5753 382.5105,-57.8808"></path>
<polygon fill="#000000" stroke="#000000" points="384.7086,-60.6204 391.0512,-52.1338 380.8006,-54.8127 384.7086,-60.6204"></polygon>
</g>
<!-- twitterdb -->
<g id="node9" class="node">
<title>twitterdb</title>
<polygon fill="none" stroke="#000000" points="614.1661,-52 497.8339,-52 497.8339,-16 614.1661,-16 614.1661,-52"></polygon>
<text text-anchor="middle" x="556" y="-29.8" font-family="Times,serif" font-size="14.00" fill="#000000">Database (twitter)</text>
</g>
<!-- overseer&#45;&gt;twitterdb -->
<g id="edge8" class="edge">
<title>overseer-&gt;twitterdb</title>
<path fill="none" stroke="#000000" d="M347.9442,-95.1429C384.9325,-84.2729 442.7065,-67.2944 487.9973,-53.9845"></path>
<polygon fill="#000000" stroke="#000000" points="489.1447,-57.2953 497.7521,-51.1177 487.171,-50.5794 489.1447,-57.2953"></polygon>
</g>
</g>
</svg>
